<define-tag pagetitle>DLA-2914-1 zabbix</define-tag>
<define-tag report_date>2022-02-07</define-tag>
<define-tag secrefs>CVE-2022-23134</define-tag>
<define-tag packages>zabbix</define-tag>
<define-tag isvulnerable>yes</define-tag>
<define-tag fixed>yes</define-tag>
<define-tag fixed-section>no</define-tag>

#use wml::debian::security

