<define-tag pagetitle>DLA-3092-1 dpdk</define-tag>
<define-tag report_date>2022-9-02</define-tag>
<define-tag secrefs>CVE-2022-2132</define-tag>
<define-tag packages>dpdk</define-tag>
<define-tag isvulnerable>yes</define-tag>
<define-tag fixed>yes</define-tag>
<define-tag fixed-section>no</define-tag>

#use wml::debian::security

