<define-tag pagetitle>DLA-2544-1 openldap</define-tag>
<define-tag report_date>2021-02-03</define-tag>
<define-tag secrefs>CVE-2020-36221 CVE-2020-36222 CVE-2020-36223 CVE-2020-36224 CVE-2020-36225 CVE-2020-36226 CVE-2020-36227 CVE-2020-36228 CVE-2020-36229 CVE-2020-36230</define-tag>
<define-tag packages>openldap</define-tag>
<define-tag isvulnerable>yes</define-tag>
<define-tag fixed>yes</define-tag>
<define-tag fixed-section>no</define-tag>

#use wml::debian::security

