<define-tag pagetitle>DLA-2512-1 libhibernate3-java</define-tag>
<define-tag report_date>2021-1-03</define-tag>
<define-tag secrefs>CVE-2020-25638</define-tag>
<define-tag packages>libhibernate3-java</define-tag>
<define-tag isvulnerable>yes</define-tag>
<define-tag fixed>yes</define-tag>
<define-tag fixed-section>no</define-tag>

#use wml::debian::security

