<define-tag pagetitle>DLA-2647-1 bind9</define-tag>
<define-tag report_date>2021-05-04</define-tag>
<define-tag secrefs>CVE-2021-25214 CVE-2021-25215 CVE-2021-25216 Bug#987741 Bug#987742 Bug#987743</define-tag>
<define-tag packages>bind9</define-tag>
<define-tag isvulnerable>yes</define-tag>
<define-tag fixed>yes</define-tag>
<define-tag fixed-section>no</define-tag>

#use wml::debian::security

