<define-tag pagetitle>DSA-5355-1 thunderbird</define-tag>
<define-tag report_date>2023-2-18</define-tag>
<define-tag secrefs>CVE-2022-46871 CVE-2022-46877 CVE-2023-0430 CVE-2023-0616 CVE-2023-0767 CVE-2023-23598 CVE-2023-23601 CVE-2023-23602 CVE-2023-23603 CVE-2023-23605 CVE-2023-25728 CVE-2023-25729 CVE-2023-25730 CVE-2023-25732 CVE-2023-25735 CVE-2023-25737 CVE-2023-25739 CVE-2023-25742 CVE-2023-25744 CVE-2023-25746</define-tag>
<define-tag packages>thunderbird</define-tag>
<define-tag isvulnerable>yes</define-tag>
<define-tag fixed>yes</define-tag>
<define-tag fixed-section>no</define-tag>

#use wml::debian::security



</dl>
