<define-tag pagetitle>DLA-1203-1 xrdp</define-tag>
<define-tag report_date>2017-12-11</define-tag>
<define-tag secrefs>CVE-2017-16927</define-tag>
<define-tag packages>xrdp</define-tag>
<define-tag isvulnerable>yes</define-tag>
<define-tag fixed>yes</define-tag>
<define-tag fixed-section>no</define-tag>

#use wml::debian::security

