<define-tag pagetitle>DLA-1024-1 nginx</define-tag>
<define-tag report_date>2017-7-13</define-tag>
<define-tag secrefs>CVE-2017-7529 Bug##868109</define-tag>
<define-tag packages>nginx</define-tag>
<define-tag isvulnerable>yes</define-tag>
<define-tag fixed>yes</define-tag>
<define-tag fixed-section>no</define-tag>

#use wml::debian::security

