<define-tag pagetitle>DLA-3277-1 powerline-gitstatus</define-tag>
<define-tag report_date>2023-1-20</define-tag>
<define-tag secrefs>CVE-2022-42906</define-tag>
<define-tag packages>powerline-gitstatus</define-tag>
<define-tag isvulnerable>yes</define-tag>
<define-tag fixed>yes</define-tag>
<define-tag fixed-section>no</define-tag>

#use wml::debian::security

