<define-tag pagetitle>DLA-3399-1 389-ds-base</define-tag>
<define-tag report_date>2023-04-25</define-tag>
<define-tag secrefs>CVE-2019-3883 CVE-2019-10224 CVE-2019-14824 CVE-2021-3514 CVE-2021-3652 CVE-2021-4091 CVE-2022-0918 CVE-2022-0996 CVE-2022-2850</define-tag>
<define-tag packages>389-ds-base</define-tag>
<define-tag isvulnerable>yes</define-tag>
<define-tag fixed>yes</define-tag>
<define-tag fixed-section>no</define-tag>

#use wml::debian::security

