<define-tag pagetitle>DLA-3384-1 tomcat9</define-tag>
<define-tag report_date>2023-4-05</define-tag>
<define-tag secrefs>CVE-2022-42252 CVE-2023-28708 Bug#1033475</define-tag>
<define-tag packages>tomcat9</define-tag>
<define-tag isvulnerable>yes</define-tag>
<define-tag fixed>yes</define-tag>
<define-tag fixed-section>no</define-tag>

#use wml::debian::security

