<define-tag pagetitle>DLA-3351-1 apache2</define-tag>
<define-tag report_date>2023-03-07</define-tag>
<define-tag secrefs>CVE-2006-20001 CVE-2021-33193 CVE-2022-36760 CVE-2022-37436</define-tag>
<define-tag packages>apache2</define-tag>
<define-tag isvulnerable>yes</define-tag>
<define-tag fixed>yes</define-tag>
<define-tag fixed-section>no</define-tag>

#use wml::debian::security

