<define-tag pagetitle>DLA-3266-1 viewvc</define-tag>
<define-tag report_date>2023-01-11</define-tag>
<define-tag secrefs>CVE-2023-22456 CVE-2023-22464</define-tag>
<define-tag packages>viewvc</define-tag>
<define-tag isvulnerable>yes</define-tag>
<define-tag fixed>yes</define-tag>
<define-tag fixed-section>no</define-tag>

#use wml::debian::security
