<define-tag pagetitle>DLA-2215-1 clamav</define-tag>
<define-tag report_date>2020-05-20</define-tag>
<define-tag secrefs>CVE-2020-3327 CVE-2020-3341</define-tag>
<define-tag packages>clamav</define-tag>
<define-tag isvulnerable>yes</define-tag>
<define-tag fixed>yes</define-tag>
<define-tag fixed-section>no</define-tag>

#use wml::debian::security

