<perl>

# list of architectures, ordered by Popularity Contest on 2014-04-26.
@arches = (
#	alpha,
	amd64,
#	arm,
	arm64,
	armel,
	armhf,
#	hppa,
#	'hurd-i386',
	i386,
#	ia64,
#	'kfreebsd-amd64',
#	'kfreebsd-i386',
#	m68k,
#	mips,
	mipsel,
	mips64el,
#	powerpc,
#	ppc64,
	ppc64el,
#	s390,
	s390x,
#	sh4,
#	sparc,
);

# list of languages install manual is translated to
%langsinstall = (
	english => "en",
	catalan => "ca",
	czech => "cs",
	danish => "da",
	german => "de",
	greek => "el",
	spanish => "es",
#	basque => "eu,
#	finnish => "fi",
	french => "fr",
#	hungarian => "hu",
	italian => "it",
	japanese => "ja",
	korean => "ko",
	dutch => "nl",
#	norwegian_nynorsk => "nn",
	portuguese => "pt",
#	portuguese_br => "pt-br",
#	romanian => "ro",
	russian => "ru",
	swedish => "sv",
#	tagalog => "tl",
	vietnamese => "vi",
	chinese_cn => "zh-cn",
#	chinese => "zh-tw",
);

# list of languages release notes are translated to
%langsrelnotes = (
	english => "en",
	belarusian => "be",
	catalan => "ca",
	czech => "cs",
	danish => "da",
	german => "de",
	greek => "el",
	spanish => "es",
	finnish => "fi",
	french => "fr",
	italian => "it",
	japanese => "ja",
	lithuanian => "lt",
	malayalam => "ml",
	norwegian_bokmal => "nb",
	dutch => "nl",
	polish => "pl",
	portuguese => "pt",
	portuguese_br => "pt-br",
	romanian => "ro",
	russian => "ru",
	slovak => "sk",
	swedish => "sv",
	vietnamese => "vi",
	chinese_cn => "zh-cn",
	chinese => "zh-tw",
);

</perl>
