<define-tag pagetitle>DSA-5125-1 chromium</define-tag>
<define-tag report_date>2022-4-27</define-tag>
<define-tag secrefs>CVE-2022-1477 CVE-2022-1478 CVE-2022-1479 CVE-2022-1481 CVE-2022-1482 CVE-2022-1483 CVE-2022-1484 CVE-2022-1485 CVE-2022-1486 CVE-2022-1487 CVE-2022-1488 CVE-2022-1489 CVE-2022-1490 CVE-2022-1491 CVE-2022-1492 CVE-2022-1493 CVE-2022-1494 CVE-2022-1495 CVE-2022-1496 CVE-2022-1497 CVE-2022-1498 CVE-2022-1499 CVE-2022-1500 CVE-2022-1501</define-tag>
<define-tag packages>chromium</define-tag>
<define-tag isvulnerable>yes</define-tag>
<define-tag fixed>yes</define-tag>
<define-tag fixed-section>no</define-tag>

#use wml::debian::security



</dl>
