<define-tag pagetitle>DSA-5117-1 xen</define-tag>
<define-tag report_date>2022-4-10</define-tag>
<define-tag secrefs>CVE-2022-23033 CVE-2022-23034 CVE-2022-23035 CVE-2022-26356 CVE-2022-26357 CVE-2022-26358 CVE-2022-26359 CVE-2022-26360 CVE-2022-26361</define-tag>
<define-tag packages>xen</define-tag>
<define-tag isvulnerable>yes</define-tag>
<define-tag fixed>yes</define-tag>
<define-tag fixed-section>no</define-tag>

#use wml::debian::security



</dl>
