<define-tag pagetitle>DSA-5112-1 chromium</define-tag>
<define-tag report_date>2022-4-03</define-tag>
<define-tag secrefs>CVE-2022-1125 CVE-2022-1127 CVE-2022-1128 CVE-2022-1129 CVE-2022-1130 CVE-2022-1131 CVE-2022-1132 CVE-2022-1133 CVE-2022-1134 CVE-2022-1135 CVE-2022-1136 CVE-2022-1137 CVE-2022-1138 CVE-2022-1139 CVE-2022-1141 CVE-2022-1142 CVE-2022-1143 CVE-2022-1144 CVE-2022-1145 CVE-2022-1146</define-tag>
<define-tag packages>chromium</define-tag>
<define-tag isvulnerable>yes</define-tag>
<define-tag fixed>yes</define-tag>
<define-tag fixed-section>no</define-tag>

#use wml::debian::security



</dl>
