<define-tag pagetitle>DLA-1957-1 tzdata</define-tag>
<define-tag report_date>2019-10-14</define-tag>
<define-tag packages>tzdata</define-tag>
<define-tag isvulnerable>yes</define-tag>
<define-tag fixed>yes</define-tag>
<define-tag fixed-section>no</define-tag>

#use wml::debian::security

