<define-tag pagetitle>DLA-2011-1 xmlrpc-epi</define-tag>
<define-tag report_date>2019-11-26</define-tag>
<define-tag secrefs>CVE-2016-6296</define-tag>
<define-tag packages>xmlrpc-epi</define-tag>
<define-tag isvulnerable>yes</define-tag>
<define-tag fixed>yes</define-tag>
<define-tag fixed-section>no</define-tag>

#use wml::debian::security

