<pre>
# Translators: string printed by gpg --fingerprint in your language, including spaces
pub   rsa4096/<a href="key-988021A964E6EA7D.txt">988021A964E6EA7D</a> 2009-10-03
<gettext domain="cdimage">      Key fingerprint</gettext> = 1046 0DAD 7616 5AD8 1FBC  0CE9 9880 21A9 64E6 EA7D
uid                  Debian CD signing key &lt;debian-cd@lists.debian.org&gt;

pub   rsa4096/<a href="key-DA87E80D6294BE9B.txt">DA87E80D6294BE9B</a> 2011-01-05 [SC]
<gettext domain="cdimage">      Key fingerprint</gettext> = DF9B 9C49 EAA9 2984 3258  9D76 DA87 E80D 6294 BE9B
uid                  Debian CD signing key &lt;debian-cd@lists.debian.org&gt;

pub   rsa4096/<a href="key-42468F4009EA8AC3.txt">42468F4009EA8AC3</a> 2014-04-15 [SC]
<gettext domain="cdimage">      Key fingerprint</gettext> = F41D 3034 2F35 4669 5F65  C669 4246 8F40 09EA 8AC3
uid                  Debian Testing CDs Automatic Signing Key &lt;debian-cd@lists.debian.org&gt;

</pre>
