<define-tag pagetitle>DLA-650-1 mat</define-tag>
<define-tag report_date>2016-10-9</define-tag>
<define-tag secrefs>Bug#826101</define-tag>
<define-tag packages>mat</define-tag>
<define-tag isvulnerable>yes</define-tag>
<define-tag fixed>yes</define-tag>
<define-tag fixed-section>no</define-tag>

#use wml::debian::security

